…
``` r
cities = unique(homicide_df$city_state)

prop_test_output =
  map(cities, homicide_prop_test)

prop_test_df =
  bind_rows(prop_test_output)

prop_test_df |>
  mutate(CI = paste0(conf.low, ",", conf.high)) |>
  select(estimate, CI)
```

    ## # A tibble: 50 × 2
    ##    estimate CI                                 
    ##       <dbl> <chr>                              
    ##  1    0.386 0.338538962461113,0.436236672783922
    ##  2    0.383 0.35331603274552,0.41430234795461  
    ##  3    0.646 0.627741062080148,0.662985215590964
    ##  4    0.462 0.415358886115476,0.509847053280381
    ##  5    0.434 0.399805186377872,0.46832801471938 
    ##  6    0.505 0.465431770927228,0.544279458247086
    ##  7    0.612 0.569770328000038,0.653154134299293
    ##  8    0.300 0.266782123693651,0.335152594484032
    ##  9    0.736 0.724087431420913,0.747310787757566
    ## 10    0.445 0.408671173782014,0.482421567929786
    ## # ℹ 40 more rows
…
ttest_results_df |>
  select(estimate, p.value)
```

    ## # A tibble: 5,000 × 2
    ##    estimate p.value
    ##       <dbl>   <dbl>
    ##  1    0.412  0.629 
    ##  2    0.664  0.368 
    ##  3    0.551  0.534 
    ##  4    0.567  0.487 
    ##  5   -1.65   0.0599
    ##  6    1.19   0.229 
    ##  7    0.334  0.738 
    ##  8   -1.19   0.209 
    ##  9    0.122  0.887 
    ## 10    0.684  0.472 
    ## # ℹ 4,990 more rows
…
